<svg width="31" height="23" viewBox="0 0 31 23" fill="none" xmlns="http://www.w3.org/2000/svg">
<line x1="1" y1="11.4991" x2="31" y2="11.4991" stroke="black"/>
<line x1="0.646447" y1="11.253" x2="11.253" y2="0.646413" stroke="black"/>
<line y1="-0.5" x2="15" y2="-0.5" transform="matrix(0.707107 0.707107 0.707107 -0.707107 1 10.9991)" stroke="black"/>
</svg>
