<svg width="22" height="13" viewBox="0 0 22 13" fill="none" xmlns="http://www.w3.org/2000/svg">
<rect x="0.928589" y="0.928467" width="19.5" height="3.71429" fill="white"/>
<rect x="0.928589" y="4.64282" width="19.5" height="3.71429" fill="#2847B6"/>
<rect x="0.928589" y="8.35718" width="19.5" height="3.71429" fill="#B93030"/>
<rect x="0.5" y="0.5" width="20.3571" height="12" stroke="black"/>
</svg>
