<svg width="22" height="13" viewBox="0 0 22 13" fill="none" xmlns="http://www.w3.org/2000/svg">
<rect x="0.928589" y="0.928467" width="19.5" height="3.71429" fill="white"/>
<path d="M21 1H1V12H21V1Z" fill="#F0F0F0"/>
<path d="M21 2.55518H1V3.88839H21V2.55518Z" fill="#D80027"/>
<path d="M21 5.22192H1V6.55514H21V5.22192Z" fill="#D80027"/>
<path d="M21 7.88843H1V9.22165H21V7.88843Z" fill="#D80027"/>
<path d="M21 10.5552H1V11.8884H21V10.5552Z" fill="#D80027"/>
<path d="M9 1H1V7H9V1Z" fill="#2E52B2"/>
<path d="M4.30682 3.43042L4.17798 3.8268H3.76123L4.09845 4.07164L3.96961 4.46798L4.30682 4.22314L4.64382 4.46798L4.51501 4.07164L4.85223 3.8268H4.43545L4.30682 3.43042Z" fill="#F0F0F0"/>
<path d="M4.43545 5.25718L4.30682 4.86084L4.17798 5.25718H3.76123L4.09845 5.50206L3.96961 5.8984L4.30682 5.65353L4.64382 5.8984L4.51501 5.50206L4.85223 5.25718H4.43545Z" fill="#F0F0F0"/>
<path d="M2.67425 5.25718L2.54559 4.86084L2.41675 5.25718H2L2.33722 5.50206L2.20837 5.8984L2.54559 5.65353L2.88262 5.8984L2.75381 5.50206L3.09097 5.25718H2.67425Z" fill="#F0F0F0"/>
<path d="M2.54559 3.43042L2.41675 3.8268H2L2.33722 4.07164L2.20837 4.46798L2.54559 4.22314L2.88262 4.46798L2.75381 4.07164L3.09097 3.8268H2.67425L2.54559 3.43042Z" fill="#F0F0F0"/>
<path d="M4.30682 2L4.17798 2.39641H3.76123L4.09845 2.64128L3.96961 3.03763L4.30682 2.79275L4.64382 3.03763L4.51501 2.64128L4.85223 2.39641H4.43545L4.30682 2Z" fill="#F0F0F0"/>
<path d="M2.54559 2L2.41675 2.39641H2L2.33722 2.64128L2.20837 3.03763L2.54559 2.79275L2.88262 3.03763L2.75381 2.64128L3.09097 2.39641H2.67425L2.54559 2Z" fill="#F0F0F0"/>
<path d="M6.06815 3.43042L5.93933 3.8268H5.52258L5.85977 4.07164L5.73099 4.46798L6.06815 4.22314L6.40521 4.46798L6.27636 4.07164L6.61358 3.8268H6.19683L6.06815 3.43042Z" fill="#F0F0F0"/>
<path d="M6.19683 5.25718L6.06815 4.86084L5.93933 5.25718H5.52258L5.85977 5.50206L5.73099 5.8984L6.06815 5.65353L6.40521 5.8984L6.27636 5.50206L6.61358 5.25718H6.19683Z" fill="#F0F0F0"/>
<path d="M7.95815 5.25718L7.8295 4.86084L7.70065 5.25718H7.28394L7.62109 5.50206L7.49228 5.8984L7.8295 5.65353L8.16653 5.8984L8.03769 5.50206L8.3749 5.25718H7.95815Z" fill="#F0F0F0"/>
<path d="M7.8295 3.43042L7.70065 3.8268H7.28394L7.62109 4.07164L7.49228 4.46798L7.8295 4.22314L8.16653 4.46798L8.03769 4.07164L8.3749 3.8268H7.95815L7.8295 3.43042Z" fill="#F0F0F0"/>
<path d="M6.06815 2L5.93933 2.39641H5.52258L5.85977 2.64128L5.73099 3.03763L6.06815 2.79275L6.40521 3.03763L6.27636 2.64128L6.61358 2.39641H6.19683L6.06815 2Z" fill="#F0F0F0"/>
<path d="M7.8295 2L7.70065 2.39641H7.28394L7.62109 2.64128L7.49228 3.03763L7.8295 2.79275L8.16653 3.03763L8.03769 2.64128L8.3749 2.39641H7.95815L7.8295 2Z" fill="#F0F0F0"/>
<rect x="0.5" y="0.5" width="20.3571" height="12" stroke="black"/>
</svg>
