<svg width="20" height="17" viewBox="0 0 20 17" fill="none" xmlns="http://www.w3.org/2000/svg">
<mask id="path-1-outside-1" maskUnits="userSpaceOnUse" x="0" y="0" width="20" height="17" fill="black">
<rect fill="white" width="20" height="17"/>
<path d="M9.84882 15.5568L17.4257 8.25995C18.2567 7.45648 18.7146 6.39065 18.7104 5.25513C18.7104 4.11961 18.2567 3.05378 17.4257 2.2503C16.5946 1.45093 15.4922 1.0082 14.322 1.0082C13.1518 1.0082 12.0451 1.45093 11.2141 2.2544L10.2644 3.17266C10.0396 3.38992 9.67922 3.38992 9.4545 3.17266L8.49627 2.24621C7.66523 1.44273 6.5586 1 5.38413 1C4.2139 1 3.1115 1.44273 2.28471 2.24211C1.45367 3.04148 1 4.10731 1 5.24283C1 6.37835 1.45791 7.44418 2.28895 8.24765L9.84882 15.5568Z"/>
</mask>
<path d="M9.84882 15.5568L17.4257 8.25995C18.2567 7.45648 18.7146 6.39065 18.7104 5.25513C18.7104 4.11961 18.2567 3.05378 17.4257 2.2503C16.5946 1.45093 15.4922 1.0082 14.322 1.0082C13.1518 1.0082 12.0451 1.45093 11.2141 2.2544L10.2644 3.17266C10.0396 3.38992 9.67922 3.38992 9.4545 3.17266L8.49627 2.24621C7.66523 1.44273 6.5586 1 5.38413 1C4.2139 1 3.1115 1.44273 2.28471 2.24211C1.45367 3.04148 1 4.10731 1 5.24283C1 6.37835 1.45791 7.44418 2.28895 8.24765L9.84882 15.5568Z" fill="black"/>
<path d="M9.84882 15.5568L17.4257 8.25995C18.2567 7.45648 18.7146 6.39065 18.7104 5.25513C18.7104 4.11961 18.2567 3.05378 17.4257 2.2503C16.5946 1.45093 15.4922 1.0082 14.322 1.0082C13.1518 1.0082 12.0451 1.45093 11.2141 2.2544L10.2644 3.17266C10.0396 3.38992 9.67922 3.38992 9.4545 3.17266L8.49627 2.24621C7.66523 1.44273 6.5586 1 5.38413 1C4.2139 1 3.1115 1.44273 2.28471 2.24211C1.45367 3.04148 1 4.10731 1 5.24283C1 6.37835 1.45791 7.44418 2.28895 8.24765L9.84882 15.5568Z" stroke="black" stroke-width="2" mask="url(#path-1-outside-1)"/>
</svg>
