<?xml version="1.0" encoding="UTF-8" ?>
<!DOCTYPE svg PUBLIC "-//W3C//DTD SVG 1.1//EN" "http://www.w3.org/Graphics/SVG/1.1/DTD/svg11.dtd">
<svg width="26px" height="15px" viewBox="0 0 960 569" version="1.1" xmlns="http://www.w3.org/2000/svg">
<g id="#000000ff">
<path fill="#000000" opacity="1.00" d=" M 389.55 0.00 L 410.30 0.00 C 460.21 1.21 510.08 8.58 557.83 23.36 C 607.51 38.68 655.05 61.97 696.00 94.19 C 719.89 113.82 742.02 136.02 759.17 161.88 C 766.79 173.22 773.51 185.15 779.82 197.27 C 780.78 199.37 783.03 200.29 785.11 200.93 C 803.55 205.27 819.44 217.12 831.85 231.10 C 841.77 242.77 850.00 255.73 858.51 268.43 C 891.76 319.30 924.88 370.26 957.64 421.45 C 961.14 425.89 954.78 432.28 950.08 429.96 C 947.29 428.48 945.62 425.65 943.87 423.15 C 927.79 398.23 911.74 373.28 895.66 348.37 C 876.10 318.30 856.91 287.98 836.50 258.48 C 828.75 247.75 821.29 236.55 811.24 227.80 C 804.89 222.30 797.06 219.07 789.71 215.19 C 787.96 214.32 786.16 213.32 784.14 213.39 C 769.76 213.39 755.38 213.40 741.01 213.46 C 734.71 213.63 728.32 213.09 722.12 214.35 C 720.02 214.75 720.05 217.22 719.53 218.83 C 718.05 226.17 715.84 233.41 715.44 240.93 C 742.44 256.61 769.82 271.65 797.02 286.98 C 795.36 290.66 793.61 294.32 791.25 297.62 C 742.02 271.12 693.79 242.79 644.34 216.68 C 640.75 214.91 637.18 212.45 633.01 212.58 C 626.38 212.77 620.18 216.03 615.27 220.31 C 610.85 224.24 607.06 229.77 607.65 235.96 C 607.80 242.83 612.94 247.97 617.42 252.58 C 629.29 264.16 642.29 274.50 654.99 285.14 C 684.32 309.40 714.04 333.22 742.72 358.26 C 747.56 362.73 752.79 366.86 756.92 372.03 C 766.45 385.18 772.76 400.28 778.73 415.29 C 785.23 431.30 796.01 445.97 810.94 455.03 C 822.42 462.41 835.80 465.76 848.90 468.96 C 848.35 473.03 847.63 477.07 846.69 481.07 C 838.61 480.30 831.00 477.19 823.42 474.48 C 809.96 469.52 797.17 462.20 787.28 451.68 C 780.01 444.12 774.16 435.33 768.94 426.27 C 760.11 429.19 751.30 432.19 742.72 435.77 C 734.66 439.11 728.73 445.73 722.53 451.60 C 700.19 473.47 674.82 492.17 647.65 507.60 C 589.86 540.34 524.72 558.43 459.07 566.49 C 444.90 567.85 430.65 567.98 416.46 569.00 L 364.02 569.00 C 344.11 566.93 324.16 564.94 304.45 561.30 C 263.39 554.01 223.05 542.15 185.01 524.96 C 150.37 509.29 117.58 489.16 88.95 464.06 C 65.63 443.50 44.86 419.75 29.44 392.67 C 17.03 370.96 8.22 347.23 3.19 322.74 C 1.17 312.73 0.57 302.52 0.00 292.34 L 0.00 278.52 C 0.45 267.27 1.15 255.97 3.45 244.93 C 9.75 215.04 22.14 186.52 39.23 161.23 C 57.98 133.30 82.13 109.26 108.98 89.12 C 152.77 56.37 203.39 33.38 256.01 18.97 C 299.48 6.97 344.50 1.02 389.55 0.00 M 350.17 18.78 C 304.79 23.36 259.71 32.78 217.00 49.00 C 165.81 68.63 117.35 97.48 79.50 137.54 C 49.65 169.12 26.88 208.47 19.34 251.61 C 16.41 272.20 16.04 293.22 18.49 313.88 C 20.79 328.76 25.24 343.26 30.75 357.25 C 43.39 388.93 63.98 416.95 88.35 440.61 C 118.80 470.38 155.19 493.66 194.01 510.94 C 237.19 530.14 283.40 542.00 330.17 548.30 C 346.05 550.24 361.98 552.37 378.01 552.13 C 405.05 552.08 432.10 551.37 459.07 549.46 C 497.66 544.81 535.99 536.79 572.59 523.51 C 611.89 509.53 649.37 490.01 682.51 464.59 C 693.91 455.94 704.30 446.06 714.61 436.15 C 702.06 430.10 689.45 424.18 676.92 418.08 C 671.02 415.04 664.96 412.22 659.59 408.28 C 652.84 403.51 649.45 394.99 649.34 386.93 C 649.70 376.70 657.48 369.23 664.02 362.25 C 656.52 356.32 648.52 350.97 641.49 344.46 C 635.07 338.75 632.69 329.41 634.49 321.15 C 635.59 315.33 639.39 310.65 642.74 305.96 C 615.51 301.07 588.22 296.52 561.08 291.19 C 556.48 290.43 551.73 289.16 548.37 285.73 C 544.38 281.81 540.29 276.39 541.65 270.47 C 544.30 253.88 547.73 237.44 551.02 220.97 C 555.13 201.30 559.15 181.60 564.03 162.10 C 565.57 154.28 571.82 148.23 578.78 144.87 C 581.99 143.21 585.67 144.00 589.10 144.33 C 609.48 146.88 629.71 150.49 649.95 153.98 C 670.40 157.68 690.89 161.21 711.13 165.95 C 717.93 167.33 723.40 173.12 725.07 179.76 C 726.89 186.88 725.02 194.18 723.46 201.16 C 736.34 201.42 749.18 200.14 762.01 199.22 C 756.56 188.89 751.04 178.56 744.31 168.99 C 723.58 139.10 696.44 114.07 666.74 93.28 C 651.57 82.49 634.96 73.97 618.35 65.68 C 601.68 57.56 584.77 49.84 567.19 43.89 C 543.89 36.01 519.96 30.03 495.80 25.49 C 473.41 21.48 450.81 18.15 428.04 17.74 C 402.08 17.12 376.08 17.03 350.17 18.78 M 577.59 160.88 C 574.64 172.11 572.30 183.49 569.72 194.81 C 564.44 219.20 559.00 243.56 554.40 268.09 C 553.59 271.56 554.89 276.55 558.99 277.12 C 574.44 281.12 590.21 283.77 605.89 286.67 C 618.28 288.67 630.57 291.67 643.09 292.61 C 630.32 280.09 614.96 270.32 603.28 256.67 C 598.30 250.97 595.33 243.58 595.41 235.98 C 594.80 223.56 602.69 212.24 612.85 205.78 C 619.85 200.92 628.69 199.52 637.04 200.19 C 642.25 200.57 646.79 203.38 651.37 205.62 C 668.90 214.87 686.11 224.71 703.30 234.57 C 706.38 219.04 710.42 203.66 712.28 187.92 C 712.49 184.37 713.08 178.66 708.58 177.62 C 689.10 173.72 669.49 170.47 649.94 166.93 C 629.66 163.50 609.46 159.39 588.99 157.23 C 585.14 157.14 578.96 156.03 577.59 160.88 M 657.01 310.85 C 652.80 313.60 649.47 317.66 646.97 321.98 C 644.60 326.13 647.07 330.84 650.01 333.95 C 656.98 341.44 665.40 347.35 673.38 353.69 C 685.44 362.66 697.05 372.47 710.42 379.48 C 717.95 383.62 726.88 383.67 735.10 381.87 C 738.79 380.90 743.16 381.08 746.08 378.28 C 744.77 376.45 743.27 374.77 741.54 373.35 C 718.33 353.18 694.63 333.56 670.51 314.48 C 666.87 311.45 661.75 308.19 657.01 310.85 M 663.47 393.44 C 664.79 397.63 669.16 399.36 672.61 401.45 C 687.31 409.48 702.50 416.64 717.98 423.04 C 721.66 424.36 725.49 426.46 729.52 425.35 C 740.66 422.91 751.38 418.82 761.88 414.45 C 760.34 407.82 757.88 401.38 754.79 395.34 C 753.40 392.48 749.90 392.18 747.14 392.65 C 737.79 393.99 728.43 396.80 718.90 395.43 C 706.15 393.78 695.47 385.96 685.31 378.67 C 681.70 376.33 678.21 373.46 674.00 372.35 C 665.84 375.23 660.33 385.07 663.47 393.44 Z" />
<path fill="#000000" opacity="1.00" d=" M 440.40 95.52 C 448.14 93.17 458.40 94.61 462.76 102.19 C 473.12 118.44 480.92 136.19 487.92 154.11 C 501.35 189.91 510.10 227.73 511.29 266.04 C 512.10 290.12 512.42 314.42 508.34 338.26 C 501.92 379.61 488.62 419.92 468.72 456.75 C 465.55 462.33 462.39 468.13 457.56 472.47 C 454.73 475.15 450.57 474.96 446.96 475.44 C 437.64 475.60 430.02 467.60 427.96 458.98 C 426.77 454.11 429.18 449.43 431.17 445.14 C 435.49 436.46 439.99 427.85 443.93 418.98 C 458.85 386.24 468.19 350.94 470.93 315.05 C 472.86 289.70 472.56 264.14 469.39 238.90 C 465.98 211.79 458.47 185.27 447.87 160.11 C 442.30 146.36 435.24 133.28 429.41 119.65 C 428.23 116.75 426.49 113.64 427.66 110.44 C 429.54 104.06 433.76 97.59 440.40 95.52 Z" />
<path fill="#000000" opacity="1.00" d=" M 369.16 133.23 C 375.44 131.83 382.74 132.97 387.44 137.64 C 390.59 141.32 392.79 145.70 395.13 149.92 C 402.23 163.55 408.62 177.59 413.97 192.01 C 432.05 243.40 434.49 300.08 421.27 352.90 C 416.34 372.73 409.36 392.05 400.43 410.42 C 396.76 417.76 392.82 425.15 387.09 431.12 C 383.24 435.15 377.70 438.04 372.00 437.16 C 360.30 436.07 350.85 422.20 356.08 411.17 C 361.93 397.74 369.02 384.85 374.14 371.10 C 387.37 336.86 392.84 299.55 389.13 262.99 C 387.02 239.47 382.06 216.10 372.80 194.32 C 368.28 183.09 362.55 172.41 357.70 161.33 C 355.86 156.83 353.78 151.93 354.92 146.98 C 356.84 140.34 362.22 134.58 369.16 133.23 Z" />
<path fill="#000000" opacity="1.00" d=" M 293.38 171.53 C 299.95 169.70 307.88 170.28 313.06 175.16 C 317.62 179.41 320.64 184.98 323.55 190.42 C 332.40 207.58 339.47 225.78 343.15 244.78 C 347.10 265.27 347.51 286.32 345.80 307.07 C 344.04 328.72 337.50 349.74 328.17 369.28 C 324.31 377.18 320.71 385.35 315.24 392.30 C 311.70 396.93 305.89 399.70 300.05 399.27 C 290.72 399.01 282.87 391.04 281.11 382.18 C 280.82 375.64 284.68 369.89 287.17 364.09 C 299.00 340.83 307.06 315.28 307.75 289.05 C 308.66 262.60 301.97 236.28 290.45 212.57 C 287.07 205.23 282.90 198.09 281.29 190.10 C 279.58 181.84 286.89 175.16 293.38 171.53 Z" />
<path fill="#000000" opacity="1.00" d=" M 227.36 206.52 C 234.82 204.49 241.96 209.04 246.25 214.83 C 272.90 249.35 276.80 299.27 257.01 337.95 C 253.24 345.15 249.13 352.44 242.95 357.86 C 238.63 361.70 232.69 364.12 226.89 362.86 C 221.00 361.91 216.56 357.31 213.64 352.40 C 211.25 348.39 210.33 343.40 211.86 338.91 C 214.79 330.12 220.96 322.90 224.50 314.38 C 228.25 306.12 229.16 296.94 229.23 287.97 C 229.33 277.46 229.31 266.61 225.38 256.69 C 221.81 247.14 214.98 239.18 211.57 229.56 C 209.05 219.25 217.31 208.52 227.36 206.52 Z" />
</g>
</svg>
