<?xml version="1.0" encoding="UTF-8" ?>
<!DOCTYPE svg PUBLIC "-//W3C//DTD SVG 1.1//EN" "http://www.w3.org/Graphics/SVG/1.1/DTD/svg11.dtd">
<svg width="63px" height="17px" viewBox="0 0 971 260" version="1.1" xmlns="http://www.w3.org/2000/svg">
<g id="#00335eff">
<path fill="#00335e" opacity="1.00" d=" M 43.93 12.21 C 44.71 7.81 48.15 3.34 52.95 3.37 C 83.30 3.22 113.65 3.59 144.00 3.69 C 159.12 4.91 174.37 12.04 183.11 24.77 C 190.87 36.17 192.64 50.69 190.66 64.10 C 188.73 81.15 181.42 97.97 168.50 109.54 C 152.87 123.76 131.61 129.75 111.00 131.75 C 96.05 133.67 80.97 131.39 66.01 132.53 C 64.04 135.23 62.70 138.33 61.82 141.54 C 57.57 156.70 53.86 171.99 49.92 187.23 C 49.29 190.56 46.54 193.67 42.99 193.76 C 34.68 194.68 26.30 193.96 17.95 194.29 C 14.10 194.03 10.04 194.81 6.36 193.42 C 3.27 191.42 3.07 187.13 4.03 183.92 C 17.35 126.68 30.44 69.40 43.93 12.21 M 85.00 44.77 C 81.42 56.90 78.62 69.26 76.04 81.64 C 75.23 85.21 75.27 88.89 75.47 92.52 C 79.14 96.56 84.97 96.41 89.99 96.41 C 103.43 96.48 117.70 94.77 129.09 87.05 C 136.88 81.97 141.56 72.62 141.08 63.35 C 140.56 57.08 138.77 50.47 133.89 46.16 C 126.48 39.85 116.46 38.01 107.02 37.55 C 102.34 37.53 97.61 37.21 92.97 37.95 C 89.32 38.49 85.83 41.05 85.00 44.77 Z" />
<path fill="#00335e" opacity="1.00" d=" M 926.18 4.37 C 932.04 4.36 937.91 4.38 943.78 4.36 C 943.78 4.95 943.77 6.11 943.76 6.70 C 941.36 6.69 938.96 6.68 936.58 6.66 C 936.63 13.66 936.57 20.67 936.62 27.67 C 935.50 27.66 934.39 27.66 933.29 27.66 C 933.32 20.67 933.28 13.68 933.31 6.69 C 930.92 6.69 928.54 6.68 926.16 6.68 C 926.17 6.10 926.18 4.95 926.18 4.37 Z" />
<path fill="#00335e" opacity="1.00" d=" M 948.32 4.34 C 949.35 4.35 951.40 4.36 952.43 4.36 C 954.59 10.33 956.44 16.42 958.83 22.31 C 960.67 16.28 962.98 10.42 965.02 4.45 C 966.45 4.41 967.90 4.36 969.36 4.31 C 969.58 9.91 969.88 15.53 971.00 21.04 L 971.00 27.55 C 969.84 27.60 968.68 27.65 967.54 27.70 C 967.26 22.06 967.08 16.38 966.13 10.80 C 963.62 16.30 961.86 22.09 959.71 27.73 C 958.77 27.68 957.84 27.63 956.92 27.58 C 955.41 22.56 953.65 17.62 952.13 12.60 C 951.76 12.48 951.03 12.22 950.66 12.09 C 950.52 17.31 950.25 22.52 949.73 27.72 C 948.90 27.69 947.23 27.63 946.40 27.60 C 947.29 19.87 947.43 12.07 948.32 4.34 Z" />
<path fill="#00335e" opacity="1.00" d=" M 219.78 51.76 C 231.38 49.42 243.18 48.04 254.99 47.34 C 261.27 47.52 267.54 46.15 273.81 47.07 C 287.23 47.73 301.55 49.07 312.85 57.06 C 320.77 62.25 327.96 69.55 330.42 78.95 C 333.06 88.58 330.39 98.51 328.57 108.04 C 323.37 133.34 318.05 158.63 312.38 183.84 C 311.73 186.17 311.52 188.85 309.67 190.62 C 306.75 193.85 302.11 194.27 298.03 194.40 C 289.19 194.45 280.35 194.67 271.52 194.42 C 271.03 194.06 270.04 193.32 269.54 192.95 C 269.72 188.38 270.41 183.83 270.24 179.25 C 260.87 183.14 252.68 189.38 243.39 193.48 C 235.88 197.49 227.19 197.73 218.90 198.27 C 208.40 198.31 197.28 196.75 188.57 190.43 C 181.93 185.71 177.99 177.96 176.80 170.02 C 175.00 155.36 177.63 139.14 187.97 127.98 C 197.88 116.82 212.68 111.82 226.97 109.28 C 243.55 107.09 260.31 107.83 276.98 107.05 C 279.43 106.63 282.27 106.96 284.34 105.41 C 287.45 101.35 287.89 95.84 287.63 90.90 C 287.55 86.51 284.90 82.17 280.78 80.48 C 274.80 78.23 268.32 78.23 262.02 78.29 C 248.56 78.10 235.11 79.89 222.01 82.90 C 218.08 83.52 214.54 87.02 210.41 85.47 C 207.44 84.33 207.40 80.63 207.68 77.97 C 208.32 72.25 208.96 66.51 210.23 60.89 C 211.15 56.26 215.16 52.55 219.78 51.76 M 233.19 132.49 C 226.67 135.16 220.70 140.66 219.89 148.00 C 219.15 154.67 220.46 162.68 226.49 166.64 C 232.57 170.47 240.13 169.82 246.98 169.47 C 254.23 168.85 262.03 167.66 267.69 162.68 C 273.70 157.54 276.63 149.80 278.08 142.22 C 278.86 137.46 280.32 132.37 278.20 127.74 C 274.54 126.56 270.73 126.93 266.99 127.33 C 255.60 127.59 243.87 128.13 233.19 132.49 Z" />
<path fill="#00335e" opacity="1.00" d=" M 355.01 47.93 C 364.67 47.34 374.35 47.23 384.03 47.32 C 387.80 47.28 391.65 49.17 393.63 52.43 C 395.47 55.11 395.59 58.45 396.12 61.55 C 399.63 82.98 402.92 104.45 406.62 125.86 C 407.41 130.17 407.97 134.59 409.67 138.67 C 410.94 138.64 412.25 138.81 413.51 138.47 C 431.22 109.33 449.16 80.29 467.59 51.58 C 469.42 47.94 473.81 47.86 477.34 47.46 C 486.90 46.97 496.48 47.37 506.05 47.32 C 508.99 47.36 512.54 47.30 514.46 49.98 C 515.05 52.85 512.94 55.20 511.72 57.58 C 478.99 112.98 445.51 167.93 411.60 222.61 C 405.27 232.58 399.13 242.68 392.34 252.34 C 390.21 255.04 388.03 258.78 384.12 258.71 C 375.08 258.46 366.04 258.23 356.99 258.42 C 352.77 258.44 348.44 258.70 344.37 257.37 C 344.29 254.72 343.78 251.79 345.44 249.49 C 353.98 235.48 363.20 221.90 371.73 207.88 C 373.29 205.13 375.23 202.30 375.20 199.01 C 374.81 195.62 373.48 192.43 372.98 189.06 C 364.90 145.91 356.44 102.83 349.17 59.54 C 347.86 54.99 350.16 49.17 355.01 47.93 Z" />
</g>
<g id="#296192ff">
<path fill="#296192" opacity="1.00" d=" M 547.38 3.51 C 570.58 2.98 593.82 3.65 617.04 3.45 C 625.35 3.37 633.67 3.52 641.98 3.75 C 654.00 5.04 665.69 10.19 674.41 18.62 C 684.05 28.39 688.20 42.51 687.55 56.01 C 686.88 74.41 680.89 93.41 667.64 106.66 C 655.70 119.32 638.94 126.29 622.12 129.60 C 604.68 133.30 586.69 133.03 568.99 131.86 C 565.25 131.66 560.70 132.44 559.73 136.73 C 553.96 153.81 550.66 171.63 545.58 188.91 C 544.35 192.95 539.82 194.36 536.01 194.28 C 525.65 194.37 515.27 194.48 504.92 194.24 C 500.30 194.15 498.83 188.63 499.83 184.89 C 513.19 127.34 526.42 69.76 539.93 12.24 C 540.70 8.33 543.23 4.35 547.38 3.51 M 588.68 37.95 C 584.75 38.69 581.51 41.76 580.80 45.73 C 577.33 57.69 574.55 69.83 572.08 82.03 C 571.38 85.35 571.00 88.83 571.73 92.18 C 573.19 95.31 577.03 95.71 580.02 96.26 C 589.54 96.83 599.20 96.38 608.51 94.22 C 617.26 92.02 626.25 88.20 631.87 80.82 C 638.01 73.03 638.53 61.94 634.95 52.94 C 632.52 47.06 627.01 43.08 621.22 40.89 C 610.87 37.07 599.53 36.92 588.68 37.95 Z" />
<path fill="#296192" opacity="1.00" d=" M 880.37 4.49 C 891.33 4.34 902.30 4.38 913.26 4.75 C 916.94 6.00 919.98 10.05 918.46 14.02 C 904.63 72.70 890.66 131.34 876.60 189.96 C 876.23 191.11 875.80 192.24 875.33 193.35 C 872.58 193.88 869.79 194.23 867.00 194.21 C 857.02 193.64 847.01 193.66 837.02 193.60 C 834.85 192.80 833.30 190.33 833.75 188.01 C 834.40 181.81 835.86 175.73 836.94 169.60 C 847.65 117.39 859.77 65.47 871.83 13.56 C 872.59 9.24 875.63 4.73 880.37 4.49 Z" />
<path fill="#296192" opacity="1.00" d=" M 753.02 47.18 C 764.04 46.11 775.17 47.06 786.10 48.64 C 800.19 50.72 813.73 58.41 821.73 70.34 C 827.34 78.75 827.38 89.41 825.43 98.99 C 819.63 128.15 813.51 157.25 806.92 186.24 C 806.24 190.70 801.98 193.72 797.68 194.12 C 789.81 194.88 781.88 194.33 773.99 194.51 C 770.78 194.41 767.33 195.06 764.45 193.32 C 764.46 188.66 765.12 184.04 765.32 179.39 C 752.89 184.21 742.05 192.64 729.32 196.80 C 715.83 199.46 701.05 199.68 688.41 193.59 C 679.19 189.31 672.94 180.02 671.69 170.02 C 670.53 159.49 671.28 148.46 675.73 138.72 C 681.36 126.14 693.32 117.43 706.15 113.19 C 727.22 105.65 749.93 108.38 771.82 106.90 C 774.28 106.44 777.18 106.95 779.26 105.32 C 781.93 101.84 782.66 97.25 782.68 92.96 C 782.74 89.35 781.83 85.49 779.12 82.94 C 775.69 79.60 770.65 79.06 766.12 78.55 C 750.04 77.56 733.84 79.20 718.14 82.74 C 715.00 83.34 712.13 84.78 709.19 85.95 C 706.07 87.16 702.38 84.45 702.66 81.07 C 702.62 74.17 703.71 67.28 705.25 60.57 C 706.14 55.89 710.36 52.26 715.00 51.56 C 727.55 49.19 740.26 47.59 753.02 47.18 M 745.02 128.51 C 736.50 129.81 727.28 131.72 720.93 137.99 C 716.12 142.52 715.08 149.70 716.25 155.94 C 716.81 161.04 720.04 165.87 724.82 167.89 C 730.24 170.18 736.26 169.80 742.00 169.56 C 749.39 169.03 757.27 168.00 763.25 163.23 C 769.44 158.27 772.58 150.52 774.09 142.93 C 775.02 137.94 776.49 132.53 774.26 127.67 C 772.19 127.16 770.08 126.57 767.93 126.84 C 760.31 127.69 752.61 127.28 745.02 128.51 Z" />
</g>
</svg>
