<svg width="22" height="22" viewBox="0 0 22 22" fill="none" xmlns="http://www.w3.org/2000/svg">
<path d="M22 11.2661C22 10.6895 21.9098 10.0685 21.8197 9.40323H11.1803V13.2177H17.5369C17.4016 13.8831 17.1311 14.5484 16.7705 15.1694C16.2295 15.9677 15.5533 16.6331 14.7418 17.0766C13.7049 17.6976 12.5328 17.9637 11.1803 17.9637C9.91803 17.9637 8.7459 17.6532 7.70902 17.0323C6.62705 16.4113 5.81557 15.5685 5.18443 14.504C4.55328 13.4395 4.2377 12.2863 4.2377 11C4.2377 9.53629 4.64344 8.20565 5.45492 7.05242C6.17623 5.9879 7.16803 5.18952 8.43033 4.65726C9.64754 4.125 10.9098 3.94758 12.1721 4.125C13.5246 4.30242 14.6516 4.87903 15.6434 5.76613L18.6639 2.88306C16.5902 0.975806 14.0656 0 11.1803 0C9.15164 0 7.30328 0.532258 5.59016 1.50806C3.87705 2.48387 2.47951 3.81452 1.4877 5.5C0.495902 7.18548 0 9.04839 0 11C0 12.996 0.495902 14.8145 1.4877 16.5C2.47951 18.1855 3.87705 19.5605 5.59016 20.5363C7.30328 21.5121 9.15164 22 11.1803 22C13.2992 22 15.1926 21.5565 16.8156 20.625C18.4385 19.7379 19.7459 18.4516 20.6475 16.8105C21.5492 15.2137 22 13.3508 22 11.2661Z" fill="black"/>
</svg>
