<?xml version="1.0" encoding="UTF-8" ?>
<!DOCTYPE svg PUBLIC "-//W3C//DTD SVG 1.1//EN" "http://www.w3.org/Graphics/SVG/1.1/DTD/svg11.dtd">
<svg width="34px" height="18px" viewBox="0 0 934 301" version="1.1" xmlns="http://www.w3.org/2000/svg">
<g id="#04217eff">
<path fill="#04217e" opacity="1.00" d=" M 552.14 10.37 C 576.39 2.08 602.50 -0.08 627.94 2.30 C 645.55 3.82 662.73 8.35 679.40 14.08 C 675.28 34.70 670.67 55.23 666.27 75.80 C 645.60 66.32 622.76 61.30 599.98 62.23 C 588.81 62.59 577.03 64.93 568.19 72.19 C 562.26 77.03 558.52 85.44 561.39 92.93 C 564.42 100.57 571.54 105.46 578.20 109.74 C 594.33 119.54 611.84 126.95 627.45 137.64 C 640.44 146.38 652.40 157.52 659.16 171.88 C 665.65 185.23 666.73 200.59 664.73 215.13 C 662.37 233.42 654.08 250.94 641.17 264.15 C 628.80 277.14 612.76 286.18 595.90 292.00 C 579.44 297.59 562.10 300.51 544.73 301.00 L 525.38 301.00 C 500.21 299.70 474.78 295.76 451.40 286.01 C 455.77 264.83 460.57 243.73 464.85 222.54 C 470.19 224.48 475.18 227.25 480.48 229.30 C 498.32 236.81 517.67 240.62 537.02 240.66 C 549.89 240.97 563.34 239.23 574.56 232.51 C 581.66 228.26 587.41 220.65 586.92 212.04 C 587.34 204.41 582.41 197.79 576.74 193.23 C 563.56 182.52 547.38 176.68 532.82 168.21 C 518.64 160.00 505.00 150.09 495.25 136.73 C 487.00 125.61 482.15 111.88 482.36 97.98 C 482.18 79.33 488.46 60.69 499.97 45.99 C 513.07 29.00 532.03 17.31 552.14 10.37 Z" />
<path fill="#04217e" opacity="1.00" d=" M 2.03 15.21 C 2.33 12.32 2.97 9.49 3.66 6.67 C 46.11 6.69 88.56 6.68 131.01 6.67 C 140.02 6.64 149.10 10.05 155.53 16.44 C 161.19 21.87 164.68 29.27 166.07 36.94 C 176.18 90.63 186.30 144.32 196.40 198.01 C 196.74 200.00 197.19 201.98 197.68 203.95 C 223.71 138.19 249.70 72.42 275.77 6.68 C 302.05 6.68 328.33 6.66 354.62 6.68 C 314.07 103.36 273.53 200.04 232.95 296.71 C 206.50 296.73 180.05 296.69 153.59 296.72 C 133.74 220.00 113.90 143.27 94.06 66.54 C 92.33 59.98 90.66 53.09 86.29 47.71 C 81.52 42.07 74.55 39.05 68.05 35.91 C 46.94 26.50 24.56 20.19 2.03 15.21 Z" />
<path fill="#04217e" opacity="1.00" d=" M 328.12 281.03 C 347.64 189.58 367.32 98.16 386.79 6.69 C 411.80 6.64 436.82 6.68 461.83 6.67 C 441.32 103.39 420.46 200.03 399.82 296.72 C 374.88 296.75 349.93 296.71 324.98 296.73 C 325.66 291.43 327.05 286.26 328.12 281.03 Z" />
<path fill="#04217e" opacity="1.00" d=" M 773.27 30.52 C 777.83 16.72 791.37 6.43 806.04 6.66 C 827.49 6.64 848.94 6.67 870.39 6.64 C 888.84 94.21 907.02 181.85 925.37 269.44 C 927.20 278.56 929.31 287.61 930.96 296.76 C 907.84 296.80 884.71 296.78 861.58 296.76 C 858.48 282.35 855.61 267.88 852.45 253.48 C 820.39 253.50 788.33 253.52 756.27 253.47 C 750.98 267.85 745.80 282.28 740.62 296.71 C 714.38 296.82 688.13 296.75 661.89 296.74 C 676.57 260.67 691.95 224.86 706.90 188.90 C 729.02 136.10 751.16 83.32 773.27 30.52 M 804.77 119.82 C 795.87 144.51 786.78 169.12 777.98 193.85 C 798.64 193.90 819.29 193.88 839.95 193.86 C 832.52 157.83 825.08 121.78 817.34 85.82 C 812.76 96.98 809.03 108.51 804.77 119.82 Z" />
</g>
</svg>
