<svg width="15" height="9" viewBox="0 0 15 9" fill="none"
    xmlns="http://www.w3.org/2000/svg">
    <path
        d="M14.3828 0.601562C14.3281 0.875 14.1094 1.33984 13.7266 1.96875C13.4531 2.43359 13.125 2.95312 12.7422 3.55469C12.4141 4.04688 12.2227 4.29297 12.2227 4.29297C12.1133 4.45703 12.0586 4.59375 12.0586 4.67578C12.0586 4.78516 12.1133 4.89453 12.2227 5.00391L12.4688 5.27734C13.7812 6.64453 14.5195 7.57422 14.6836 8.06641C14.7383 8.28516 14.7109 8.47656 14.6016 8.58594C14.4922 8.69531 14.3555 8.75 14.1367 8.75H12.5234C12.3047 8.75 12.1406 8.69531 11.9766 8.55859C11.8672 8.50391 11.6484 8.3125 11.375 7.98438C11.1016 7.65625 10.8555 7.38281 10.6367 7.16406C9.89844 6.48047 9.35156 6.125 9.02344 6.125C8.85938 6.125 8.75 6.15234 8.69531 6.20703C8.64062 6.26172 8.61328 6.39844 8.61328 6.5625C8.58594 6.69922 8.58594 6.97266 8.58594 7.41016V8.12109C8.58594 8.33984 8.53125 8.50391 8.42188 8.58594C8.25781 8.69531 7.92969 8.75 7.4375 8.75C6.5625 8.75 5.71484 8.50391 4.83984 7.98438C3.96484 7.49219 3.19922 6.75391 2.54297 5.79688C1.91406 4.97656 1.39453 4.12891 0.984375 3.25391C0.65625 2.59766 0.382812 1.99609 0.191406 1.42188C0.0546875 0.984375 0 0.65625 0 0.464844C0 0.164062 0.164062 0 0.546875 0H2.16016C2.35156 0 2.48828 0.0546875 2.59766 0.136719C2.70703 0.246094 2.78906 0.410156 2.87109 0.628906C3.11719 1.36719 3.41797 2.07812 3.80078 2.76172C4.12891 3.41797 4.45703 3.9375 4.78516 4.32031C5.11328 4.73047 5.35938 4.92188 5.55078 4.92188C5.66016 4.92188 5.71484 4.89453 5.76953 4.8125C5.82422 4.73047 5.85156 4.56641 5.85156 4.32031V1.94141C5.82422 1.66797 5.76953 1.39453 5.66016 1.17578C5.60547 1.06641 5.49609 0.929688 5.38672 0.765625C5.25 0.601562 5.19531 0.492188 5.19531 0.382812C5.19531 0.273438 5.22266 0.191406 5.30469 0.109375C5.38672 0.0546875 5.49609 0 5.60547 0H8.14844C8.3125 0 8.42188 0.0546875 8.47656 0.136719C8.53125 0.246094 8.58594 0.382812 8.58594 0.601562V3.77344C8.58594 3.9375 8.61328 4.07422 8.66797 4.12891C8.72266 4.21094 8.77734 4.23828 8.85938 4.23828C8.94141 4.23828 9.05078 4.21094 9.16016 4.15625C9.26953 4.10156 9.40625 3.96484 9.59766 3.74609C9.92578 3.36328 10.2812 2.89844 10.6367 2.32422C10.8555 1.94141 11.1016 1.50391 11.3203 1.01172L11.5938 0.464844C11.7031 0.164062 11.9492 0 12.2773 0H13.8906C14.3281 0 14.4922 0.21875 14.3828 0.601562Z"
        fill="black" />
</svg>